{
  "$schema": "../node_modules/@angular-devkit/schematics/collection-schema.json",
  "schematics": {
    "ng-new": {
      "description": "Create new workspace.",
      "factory": "./ng-new/workspace#ngNew",
      "schema": "./ng-new/schema.json"
    },
    "ng-new__workspace_finalize": {
      "description": "Finalize workspace.",
      "factory": "./ng-new/workspace-finalize#workspaceFinalizeFactory",
      "private": true
    },
    "ng-new__workspace_finalize_post": {
      "description": "Finalize workspace.",
      "factory": "./ng-new/workspace-finalize#workspaceFinalizePostFactory",
      "private": true
    },
    "application": {
      "description": "Create new application.",
      "factory": "./ng-new/application#applicationFactory",
      "private": true
    },
    "application__application_eslint": {
      "description": "ESLint customization.",
      "factory": "./ng-new/application-eslint#applicationEslintFactory",
      "private": true
    },
    "application__application_prettier": {
      "description": "ESLint customization.",
      "factory": "./ng-new/application-prettier#applicationPrettierFactory",
      "private": true
    },
    "application__application_finalize": {
      "description": "Finalize application.",
      "factory": "./ng-new/application-finalize#applicationFinalizeFactory",
      "private": true
    }
  }
}
